{
  "consumer": {
    "name": "note-app-frontend"
  },
  "provider": {
    "name": "note-app-backend"
  },
  "interactions": [
    {
      "description": "A request to get a note",
      "providerState": "Request to see all notes",
      "request": {
        "method": "GET",
        "path": "/notes"
      },
      "response": {
        "status": 200,
        "headers": {
        },
        "body": {
          "notes": [
            {
              "_id": "1",
              "note": "lorem ipsum",
              "_v": 0
            },
            {
              "_id": "2",
              "note": "lorem hamza",
              "_v": 0
            },
            {
              "_id": "3",
              "note": "lorem abbas",
              "_v": 0
            }
          ]
        }
      }
    },
    {
      "description": "A request to get a posted note",
      "providerState": "Request to see posted note",
      "request": {
        "method": "POST",
        "path": "/notes",
        "body": {
          "note": "lorem ipsum"
        }
      },
      "response": {
        "status": 201,
        "headers": {
        },
        "body": {
          "_id": "1",
          "note": "lorem ipsum",
          "_v": 0
        }
      }
    }
  ],
  "metadata": {
    "pactSpecification": {
      "version": "2.0.0"
    }
  }
}